
main_v1:     file format elf64-x86-64


Disassembly of section .flat:

0000000000401000 <_start-0xe>:
  401000:	68 65 6c 6c 6f       	push   0x6f6c6c65
  401005:	2c 20                	sub    al,0x20
  401007:	77 6f                	ja     401078 <_end+0x30>
  401009:	72 6c                	jb     401077 <_end+0x2f>
  40100b:	64 0a 00             	or     al,BYTE PTR fs:[rax]

000000000040100e <_start>:
  40100e:	48 c7 c0 04 00 00 00 	mov    rax,0x4
  401015:	48 c7 c3 01 00 00 00 	mov    rbx,0x1
  40101c:	48 b9 00 10 40 00 00 	movabs rcx,0x401000
  401023:	00 00 00 
  401026:	48 c7 c2 0e 00 00 00 	mov    rdx,0xe
  40102d:	cd 80                	int    0x80
  40102f:	e8 00 00 00 00       	call   401034 <_start+0x26>
  401034:	48 c7 c0 01 00 00 00 	mov    rax,0x1
  40103b:	48 c7 c3 37 00 00 00 	mov    rbx,0x37
  401042:	cd 80                	int    0x80
